Homework8
…
# A tibble: 1 × 14
   Date `Rented Bike Count`  Hour `Temperature(°C)` `Humidity(%)`
  <int>               <int> <int>             <int>         <int>
1     0                   0     0                 0             0
# ℹ 9 more variables: `Wind speed (m/s)` <int>, `Visibility (10m)` <int>,
#   `Dew point temperature(°C)` <int>, `Solar Radiation (MJ/m2)` <int>,
#   `Rainfall(mm)` <int>, `Snowfall (cm)` <int>, Seasons <int>, Holiday <int>,
#   `Functioning Day` <int>

Next I will simply view the bike_full tibble and get a sense of what variables are numeric, categorical, and if the way they’re formatted in R is appropriate. Notably, date is currently a character variable, and variables like seasons and holiday can be made into factors.

bike_full

# A tibble: 8,760 × 14
   Date       `Rented Bike Count`  Hour `Temperature(°C)` `Humidity(%)`
   <chr>                    <dbl> <dbl>             <dbl>         <dbl>
 1 01/12/2017                 254     0              -5.2            37
 2 01/12/2017                 204     1              -5.5            38
 3 01/12/2017                 173     2              -6              39
 4 01/12/2017                 107     3              -6.2            40
 5 01/12/2017                  78     4              -6              36
 6 01/12/2017                 100     5              -6.4            37
 7 01/12/2017                 181     6              -6.6            35
 8 01/12/2017                 460     7              -7.4            38
 9 01/12/2017                 930     8              -7.6            37
10 01/12/2017                 490     9              -6.5            27
# ℹ 8,750 more rows
# ℹ 9 more variables: `Wind speed (m/s)` <dbl>, `Visibility (10m)` <dbl>,
#   `Dew point temperature(°C)` <dbl>, `Solar Radiation (MJ/m2)` <dbl>,
#   `Rainfall(mm)` <dbl>, `Snowfall (cm)` <dbl>, Seasons <chr>, Holiday <chr>,
#   `Functioning Day` <chr>
…
